Aggregate Data with Nested Groups · thothal.com
…
(sunburst_data <- prepare_sunburst_data(titanic, Survived, Sex, Age, Class, n = n))

## # A tibble: 61 x 4
##    id                  parent           label margin
##    <chr>               <chr>            <chr>  <dbl>
##  1 No_Male_Child_1st   Male_Child_1st   No         0
##  2 No_Male_Child_2nd   Male_Child_2nd   No         0
##  3 No_Male_Child_3rd   Male_Child_3rd   No        35
##  4 No_Male_Child_Crew  Male_Child_Crew  No         0
##  5 No_Male_Adult_1st   Male_Adult_1st   No       118
##  6 No_Male_Adult_2nd   Male_Adult_2nd   No       154
##  7 No_Male_Adult_3rd   Male_Adult_3rd   No       387
##  8 No_Male_Adult_Crew  Male_Adult_Crew  No       670
##  9 No_Female_Child_1st Female_Child_1st No         0
## 10 No_Female_Child_2nd Female_Child_2nd No         0
## # ... with 51 more rows
…
